.
…
```{r}
as_tibble(iris)

```

# A tibble: 150 × 5
   Sepal.Length Sepal.Width Petal.Length Petal.Width Species
          <dbl>       <dbl>        <dbl>       <dbl> <fct>  
 1          5.1         3.5          1.4         0.2 setosa 
 2          4.9         3            1.4         0.2 setosa 
 3          4.7         3.2          1.3         0.2 setosa 
 4          4.6         3.1          1.5         0.2 setosa 
 5          5           3.6          1.4         0.2 setosa 
 6          5.4         3.9          1.7         0.4 setosa 
 7          4.6         3.4          1.4         0.3 setosa 
 8          5           3.4          1.5         0.2 setosa 
 9          4.4         2.9          1.4         0.2 setosa 
10          4.9         3.1          1.5         0.1 setosa 
# ℹ 140 more rows
…
Importing data into R

Excel files using readxl package

library(readxl)
read_excel("path/dataset.xls")

# A tibble: 32 × 11
     mpg   cyl  disp    hp  drat    wt  qsec    vs    am  gear  carb
   <dbl> <dbl> <dbl> <dbl> <dbl> <dbl> <dbl> <dbl> <dbl> <dbl> <dbl>
 1  21       6  160    110  3.9   2.62  16.5     0     1     4     4
 2  21       6  160    110  3.9   2.88  17.0     0     1     4     4
 3  22.8     4  108     93  3.85  2.32  18.6     1     1     4     1
 4  21.4     6  258    110  3.08  3.22  19.4     1     0     3     1
 5  18.7     8  360    175  3.15  3.44  17.0     0     0     3     2
 6  18.1     6  225    105  2.76  3.46  20.2     1     0     3     1
 7  14.3     8  360    245  3.21  3.57  15.8     0     0     3     4
 8  24.4     4  147.    62  3.69  3.19  20       1     0     4     2
 9  22.8     4  141.    95  3.92  3.15  22.9     1     0     4     2
10  19.2     6  168.   123  3.92  3.44  18.3     1     0     4     4
# ℹ 22 more rows
…
see dplyr cheatsheets

select()

```{r}
data
```

data
# A tibble: 1,704 × 6
   country     continent  year lifeExp      pop gdpPercap
   <fct>       <fct>     <int>   <dbl>    <int>     <dbl>
 1 Afghanistan Asia       1952    28.8  8425333      779.
 2 Afghanistan Asia       1957    30.3  9240934      821.
 3 Afghanistan Asia       1962    32.0 10267083      853.
 4 Afghanistan Asia       1967    34.0 11537966      836.
 5 Afghanistan Asia       1972    36.1 13079460      740.
 6 Afghanistan Asia       1977    38.4 14880372      786.
 7 Afghanistan Asia       1982    39.9 12881816      978.
 8 Afghanistan Asia       1987    40.8 13867957      852.
 9 Afghanistan Asia       1992    41.7 16317921      649.
10 Afghanistan Asia       1997    41.8 22227415      635.
# ℹ 1,694 more rows

```{r}
select(data, continent, country, pop)
```

select(data, continent, country, pop)
# A tibble: 1,704 × 3
   continent country          pop
   <fct>     <fct>          <int>
 1 Asia      Afghanistan  8425333
 2 Asia      Afghanistan  9240934
 3 Asia      Afghanistan 10267083
 4 Asia      Afghanistan 11537966
 5 Asia      Afghanistan 13079460
 6 Asia      Afghanistan 14880372
 7 Asia      Afghanistan 12881816
 8 Asia      Afghanistan 13867957
 9 Asia      Afghanistan 16317921
10 Asia      Afghanistan 22227415
# ℹ 1,694 more rows

select()

We can also remove variables with a - (minus)

```{r}
data
```

data
# A tibble: 1,704 × 6
   country     continent  year lifeExp      pop gdpPercap
   <fct>       <fct>     <int>   <dbl>    <int>     <dbl>
 1 Afghanistan Asia       1952    28.8  8425333      779.
 2 Afghanistan Asia       1957    30.3  9240934      821.
 3 Afghanistan Asia       1962    32.0 10267083      853.
 4 Afghanistan Asia       1967    34.0 11537966      836.
 5 Afghanistan Asia       1972    36.1 13079460      740.
 6 Afghanistan Asia       1977    38.4 14880372      786.
 7 Afghanistan Asia       1982    39.9 12881816      978.
 8 Afghanistan Asia       1987    40.8 13867957      852.
 9 Afghanistan Asia       1992    41.7 16317921      649.
10 Afghanistan Asia       1997    41.8 22227415      635.
# ℹ 1,694 more rows

```{r}
select(data, -year, -pop)
```

select(data, -year, -pop)
# A tibble: 1,704 × 4
   country     continent lifeExp gdpPercap
   <fct>       <fct>       <dbl>     <dbl>
 1 Afghanistan Asia         28.8      779.
 2 Afghanistan Asia         30.3      821.
 3 Afghanistan Asia         32.0      853.
 4 Afghanistan Asia         34.0      836.
 5 Afghanistan Asia         36.1      740.
 6 Afghanistan Asia         38.4      786.
 7 Afghanistan Asia         39.9      978.
 8 Afghanistan Asia         40.8      852.
 9 Afghanistan Asia         41.7      649.
10 Afghanistan Asia         41.8      635.
# ℹ 1,694 more rows
…
ends_with() ends with a suffix

contains() contains a literal string

matches() matches regular expression

filter()

```{r}
data
```

data
# A tibble: 1,704 × 6
   country     continent  year lifeExp      pop gdpPercap
   <fct>       <fct>     <int>   <dbl>    <int>     <dbl>
 1 Afghanistan Asia       1952    28.8  8425333      779.
 2 Afghanistan Asia       1957    30.3  9240934      821.
 3 Afghanistan Asia       1962    32.0 10267083      853.
 4 Afghanistan Asia       1967    34.0 11537966      836.
 5 Afghanistan Asia       1972    36.1 13079460      740.
 6 Afghanistan Asia       1977    38.4 14880372      786.
 7 Afghanistan Asia       1982    39.9 12881816      978.
 8 Afghanistan Asia       1987    40.8 13867957      852.
 9 Afghanistan Asia       1992    41.7 16317921      649.
10 Afghanistan Asia       1997    41.8 22227415      635.
# ℹ 1,694 more rows
…
variable_name = do_some_calculation

variable_name will be attached at the end of the dataset.

mutate()

Let’s calculate the gdp

```{r}
data
```

data
# A tibble: 1,704 × 6
   country     continent  year lifeExp      pop gdpPercap
   <fct>       <fct>     <int>   <dbl>    <int>     <dbl>
 1 Afghanistan Asia       1952    28.8  8425333      779.
 2 Afghanistan Asia       1957    30.3  9240934      821.
 3 Afghanistan Asia       1962    32.0 10267083      853.
 4 Afghanistan Asia       1967    34.0 11537966      836.
 5 Afghanistan Asia       1972    36.1 13079460      740.
 6 Afghanistan Asia       1977    38.4 14880372      786.
 7 Afghanistan Asia       1982    39.9 12881816      978.
 8 Afghanistan Asia       1987    40.8 13867957      852.
 9 Afghanistan Asia       1992    41.7 16317921      649.
10 Afghanistan Asia       1997    41.8 22227415      635.
# ℹ 1,694 more rows

```{r}
mutate(data, GDP = gdpPercap * pop)
```

mutate(data, GDP = gdpPercap * pop)
# A tibble: 1,704 × 7
   country     continent  year lifeExp      pop gdpPercap          GDP
   <fct>       <fct>     <int>   <dbl>    <int>     <dbl>        <dbl>
 1 Afghanistan Asia       1952    28.8  8425333      779.  6567086330.
 2 Afghanistan Asia       1957    30.3  9240934      821.  7585448670.
 3 Afghanistan Asia       1962    32.0 10267083      853.  8758855797.
 4 Afghanistan Asia       1967    34.0 11537966      836.  9648014150.
 5 Afghanistan Asia       1972    36.1 13079460      740.  9678553274.
 6 Afghanistan Asia       1977    38.4 14880372      786. 11697659231.
 7 Afghanistan Asia       1982    39.9 12881816      978. 12598563401.
 8 Afghanistan Asia       1987    40.8 13867957      852. 11820990309.
 9 Afghanistan Asia       1992    41.7 16317921      649. 10595901589.
10 Afghanistan Asia       1997    41.8 22227415      635. 14121995875.
# ℹ 1,694 more rows

rename()

Changes the variable name while keeping all else intact.

new_variable_name = old_variable_name

```{r}
data
```

data
# A tibble: 1,704 × 6
   country     continent  year lifeExp      pop gdpPercap
   <fct>       <fct>     <int>   <dbl>    <int>     <dbl>
 1 Afghanistan Asia       1952    28.8  8425333      779.
 2 Afghanistan Asia       1957    30.3  9240934      821.
 3 Afghanistan Asia       1962    32.0 10267083      853.
 4 Afghanistan Asia       1967    34.0 11537966      836.
 5 Afghanistan Asia       1972    36.1 13079460      740.
 6 Afghanistan Asia       1977    38.4 14880372      786.
 7 Afghanistan Asia       1982    39.9 12881816      978.
 8 Afghanistan Asia       1987    40.8 13867957      852.
 9 Afghanistan Asia       1992    41.7 16317921      649.
10 Afghanistan Asia       1997    41.8 22227415      635.
# ℹ 1,694 more rows

```{r}
rename(data, population = pop)
```

rename(data, population = pop)
# A tibble: 1,704 × 6
   country     continent  year lifeExp population gdpPercap
   <fct>       <fct>     <int>   <dbl>      <int>     <dbl>
 1 Afghanistan Asia       1952    28.8    8425333      779.
 2 Afghanistan Asia       1957    30.3    9240934      821.
 3 Afghanistan Asia       1962    32.0   10267083      853.
 4 Afghanistan Asia       1967    34.0   11537966      836.
 5 Afghanistan Asia       1972    36.1   13079460      740.
 6 Afghanistan Asia       1977    38.4   14880372      786.
 7 Afghanistan Asia       1982    39.9   12881816      978.
 8 Afghanistan Asia       1987    40.8   13867957      852.
 9 Afghanistan Asia       1992    41.7   16317921      649.
10 Afghanistan Asia       1997    41.8   22227415      635.
# ℹ 1,694 more rows

arrange()

You can order data by variable to show the highest or lowest values first.

consider lifeExp default is lowest first

```{r}
data
```

data
# A tibble: 1,704 × 6
   country     continent  year lifeExp      pop gdpPercap
   <fct>       <fct>     <int>   <dbl>    <int>     <dbl>
 1 Afghanistan Asia       1952    28.8  8425333      779.
 2 Afghanistan Asia       1957    30.3  9240934      821.
 3 Afghanistan Asia       1962    32.0 10267083      853.
 4 Afghanistan Asia       1967    34.0 11537966      836.
 5 Afghanistan Asia       1972    36.1 13079460      740.
 6 Afghanistan Asia       1977    38.4 14880372      786.
 7 Afghanistan Asia       1982    39.9 12881816      978.
 8 Afghanistan Asia       1987    40.8 13867957      852.
 9 Afghanistan Asia       1992    41.7 16317921      649.
10 Afghanistan Asia       1997    41.8 22227415      635.
# ℹ 1,694 more rows

desc() sort lifeExp from highest to lowest

```{r}
arrange(data, desc(lifeExp))
```

arrange(data, desc(lifeExp))
# A tibble: 1,704 × 6
   country          continent  year lifeExp       pop gdpPercap
   <fct>            <fct>     <int>   <dbl>     <int>     <dbl>
 1 Japan            Asia       2007    82.6 127467972    31656.
 2 Hong Kong, China Asia       2007    82.2   6980412    39725.
 3 Japan            Asia       2002    82   127065841    28605.
 4 Iceland          Europe     2007    81.8    301931    36181.
 5 Switzerland      Europe     2007    81.7   7554661    37506.
 6 Hong Kong, China Asia       2002    81.5   6762476    30209.
 7 Australia        Oceania    2007    81.2  20434176    34435.
 8 Spain            Europe     2007    80.9  40448191    28821.
 9 Sweden           Europe     2007    80.9   9031088    33860.
10 Israel           Asia       2007    80.7   6426679    25523.
# ℹ 1,694 more rows
…
group_by and summarise()

Suppose we want to know the average population by continent.

```{r}
data
```

data
# A tibble: 1,704 × 6
   country     continent  year lifeExp      pop gdpPercap
   <fct>       <fct>     <int>   <dbl>    <int>     <dbl>
 1 Afghanistan Asia       1952    28.8  8425333      779.
 2 Afghanistan Asia       1957    30.3  9240934      821.
 3 Afghanistan Asia       1962    32.0 10267083      853.
 4 Afghanistan Asia       1967    34.0 11537966      836.
 5 Afghanistan Asia       1972    36.1 13079460      740.
 6 Afghanistan Asia       1977    38.4 14880372      786.
 7 Afghanistan Asia       1982    39.9 12881816      978.
 8 Afghanistan Asia       1987    40.8 13867957      852.
 9 Afghanistan Asia       1992    41.7 16317921      649.
10 Afghanistan Asia       1997    41.8 22227415      635.
# ℹ 1,694 more rows
…
group_by and summarise()

Suppose we want to know the average population by continent.

```{r}
data
```

data
# A tibble: 1,704 × 6
   country     continent  year lifeExp      pop gdpPercap
   <fct>       <fct>     <int>   <dbl>    <int>     <dbl>
 1 Afghanistan Asia       1952    28.8  8425333      779.
 2 Afghanistan Asia       1957    30.3  9240934      821.
 3 Afghanistan Asia       1962    32.0 10267083      853.
 4 Afghanistan Asia       1967    34.0 11537966      836.
 5 Afghanistan Asia       1972    36.1 13079460      740.
 6 Afghanistan Asia       1977    38.4 14880372      786.
 7 Afghanistan Asia       1982    39.9 12881816      978.
 8 Afghanistan Asia       1987    40.8 13867957      852.
 9 Afghanistan Asia       1992    41.7 16317921      649.
10 Afghanistan Asia       1997    41.8 22227415      635.
# ℹ 1,694 more rows
…
The%>%operator

What is the average life expectancy of Asian countries per year?

```{r}
filtered_by_asia <- filter(data, continent == "Asia")
grouped_by_country_year <- group_by(filtered_by_asia, country, year)
summarise(grouped_by_country_year, avg_lifeExp = mean(lifeExp))
```

filtered_by_asia <- filter(data, continent == "Asia")
grouped_by_country_year <- group_by(filtered_by_asia, country, year)
summarise(grouped_by_country_year, avg_lifeExp = mean(lifeExp))
# A tibble: 396 × 3
# Groups:   country [33]
   country      year avg_lifeExp
   <fct>       <int>       <dbl>
 1 Afghanistan  1952        28.8
 2 Afghanistan  1957        30.3
 3 Afghanistan  1962        32.0
 4 Afghanistan  1967        34.0
 5 Afghanistan  1972        36.1
 6 Afghanistan  1977        38.4
 7 Afghanistan  1982        39.9
 8 Afghanistan  1987        40.8
 9 Afghanistan  1992        41.7
10 Afghanistan  1997        41.8
# ℹ 386 more rows

```{r}
data %>% 
  filter(continent == "Asia") %>% 
  group_by(country, year) %>% 
  summarise(avg_lifeExp = mean(lifeExp))
```

data %>% 
  filter(continent == "Asia") %>% 
  group_by(country, year) %>% 
  summarise(avg_lifeExp = mean(lifeExp))
# A tibble: 396 × 3
# Groups:   country [33]
   country      year avg_lifeExp
   <fct>       <int>       <dbl>
 1 Afghanistan  1952        28.8
 2 Afghanistan  1957        30.3
 3 Afghanistan  1962        32.0
 4 Afghanistan  1967        34.0
 5 Afghanistan  1972        36.1
 6 Afghanistan  1977        38.4
 7 Afghanistan  1982        39.9
 8 Afghanistan  1987        40.8
 9 Afghanistan  1992        41.7
10 Afghanistan  1997        41.8
# ℹ 386 more rows

The %>% operator

```{r}
filtered_by_asia <- filter(data, continent == "Asia")
grouped_by_country <- group_by(filtered_by_asia, country)
summarised_by_country <- summarise(grouped_by_country, avg_lifeExp = mean(lifeExp))
arrange(summarised_by_country, desc(avg_lifeExp))
```

filtered_by_asia <- filter(data, continent == "Asia")
grouped_by_country <- group_by(filtered_by_asia, country)
summarised_by_country <- summarise(grouped_by_country, avg_lifeExp = mean(lifeExp))
arrange(summarised_by_country, desc(avg_lifeExp))
# A tibble: 33 × 2
   country          avg_lifeExp
   <fct>                  <dbl>
 1 Japan                   74.8
 2 Israel                  73.6
 3 Hong Kong, China        73.5
 4 Singapore               71.2
 5 Taiwan                  70.3
 6 Kuwait                  68.9
 7 Sri Lanka               66.5
 8 Lebanon                 65.9
 9 Bahrain                 65.6
10 Korea, Rep.             65.0
# ℹ 23 more rows

```{r}
data %>% 
  filter(continent == "Asia") %>% 
  group_by(country) %>% 
  summarise(avg_lifeExp = mean(lifeExp)) %>% 
  arrange(desc(avg_lifeExp))
```

data %>% 
  filter(continent == "Asia") %>% 
  group_by(country) %>% 
  summarise(avg_lifeExp = mean(lifeExp)) %>% 
  arrange(desc(avg_lifeExp))
# A tibble: 33 × 2
   country          avg_lifeExp
   <fct>                  <dbl>
 1 Japan                   74.8
 2 Israel                  73.6
 3 Hong Kong, China        73.5
 4 Singapore               71.2
 5 Taiwan                  70.3
 6 Kuwait                  68.9
 7 Sri Lanka               66.5
 8 Lebanon                 65.9
 9 Bahrain                 65.6
10 Korea, Rep.             65.0
# ℹ 23 more rows
…
Wide data format

each subject or observation occupies a single row, with multiple variables spread across columns.

one row per entity, many columns for repeated measures.

easier for human readability and simple summaries. Often used in spreadsheets.

```{r}
read_excel("data/urbanpop.xlsx")
```

# A tibble: 209 × 8
   country               `1960`    `1961`    `1962`  `1963` `1964` `1965` `1966`
   <chr>                  <dbl>     <dbl>     <dbl>   <dbl>  <dbl>  <dbl>  <dbl>
 1 Afghanistan           769308   814923.   858522.  9.04e5 9.51e5 1.00e6 1.06e6
 2 Albania               494443   511803.   529439.  5.47e5 5.66e5 5.84e5 6.03e5
 3 Algeria              3293999  3515148.  3739963.  3.97e6 4.22e6 4.49e6 4.65e6
 4 American Samoa            NA    13660.    14166.  1.48e4 1.54e4 1.60e4 1.67e4
 5 Andorra                   NA     8724.     9700.  1.07e4 1.19e4 1.31e4 1.42e4
 6 Angola                521205   548265.   579695.  6.12e5 6.45e5 6.79e5 7.18e5
 7 Antigua and Barbuda    21699    21635.    21664.  2.17e4 2.18e4 2.19e4 2.20e4
 8 Argentina           15224096 15545223. 15912120.  1.63e7 1.67e7 1.70e7 1.74e7
 9 Armenia               957974  1008597.  1061426.  1.12e6 1.17e6 1.23e6 1.28e6
10 Aruba                  24996    28140.    28533.  2.88e4 2.89e4 2.91e4 2.93e4
# ℹ 199 more rows

Long data format

each measurement or observation is stored in its own row, with variables indicating who, what, and when.

multiple rows per entity, fewer columns.

referred for statistical modeling, visualization (e.g., ggplot2 in R), and tidy data principles.

```{r}
read_excel("data/urbanpop.xlsx") |> 
  pivot_longer(cols = `1960`:`1966`, names_to = "year", values_to = "urban_pop")
```

# A tibble: 1,463 × 3
   country     year  urban_pop
   <chr>       <chr>     <dbl>
 1 Afghanistan 1960    769308 
 2 Afghanistan 1961    814923.
 3 Afghanistan 1962    858522.
 4 Afghanistan 1963    903914.
 5 Afghanistan 1964    951226.
 6 Afghanistan 1965   1000582.
 7 Afghanistan 1966   1058743.
 8 Albania     1960    494443 
 9 Albania     1961    511803.
10 Albania     1962    529439.
# ℹ 1,453 more rows
…
Wide → Long data format

pivot_longer() function “lengthens” data by collapsing several coumns into two

original column names → names

data values → value

read_excel("data/urbanpop.xlsx")
# A tibble: 209 × 8
   country               `1960`    `1961`    `1962`  `1963` `1964` `1965` `1966`
   <chr>                  <dbl>     <dbl>     <dbl>   <dbl>  <dbl>  <dbl>  <dbl>
 1 Afghanistan           769308   814923.   858522.  9.04e5 9.51e5 1.00e6 1.06e6
 2 Albania               494443   511803.   529439.  5.47e5 5.66e5 5.84e5 6.03e5
 3 Algeria              3293999  3515148.  3739963.  3.97e6 4.22e6 4.49e6 4.65e6
 4 American Samoa            NA    13660.    14166.  1.48e4 1.54e4 1.60e4 1.67e4
 5 Andorra                   NA     8724.     9700.  1.07e4 1.19e4 1.31e4 1.42e4
 6 Angola                521205   548265.   579695.  6.12e5 6.45e5 6.79e5 7.18e5
 7 Antigua and Barbuda    21699    21635.    21664.  2.17e4 2.18e4 2.19e4 2.20e4
 8 Argentina           15224096 15545223. 15912120.  1.63e7 1.67e7 1.70e7 1.74e7
 9 Armenia               957974  1008597.  1061426.  1.12e6 1.17e6 1.23e6 1.28e6
10 Aruba                  24996    28140.    28533.  2.88e4 2.89e4 2.91e4 2.93e4
# ℹ 199 more rows

read_excel("data/urbanpop.xlsx") |> 
  pivot_longer(cols = `1960`:`1966`, names_to = "year", values_to = "urban_pop")
# A tibble: 1,463 × 3
   country     year  urban_pop
   <chr>       <chr>     <dbl>
 1 Afghanistan 1960    769308 
 2 Afghanistan 1961    814923.
 3 Afghanistan 1962    858522.
 4 Afghanistan 1963    903914.
 5 Afghanistan 1964    951226.
 6 Afghanistan 1965   1000582.
 7 Afghanistan 1966   1058743.
 8 Albania     1960    494443 
 9 Albania     1961    511803.
10 Albania     1962    529439.
# ℹ 1,453 more rows
…
